…
all_tibble_revdep_deps <- get_all_deps(tibble_revdeps, pkgdep)
as_tibble(all_tibble_revdep_deps)
#> # A tibble: 6,469 x 4
#>    Package    DepType Dep               Version  
#>  * <chr>      <chr>   <chr>             <chr>    
#>  1 afmToolkit Depends ggplot2           <NA>     
#>  2 antaresViz Depends antaresRead       >= 0.14.0
#>  3 antaresViz Depends antaresProcessing >= 0.11.0
#>  4 batchtools Depends data.table        >= 1.9.8 
#>  5 blkbox     Depends methods           <NA>     
#>  6 bsam       Depends rjags             >= 4-6   
#>  7 corrr      Depends dplyr             >= 0.5.0 
#>  8 crplyr     Depends crunch            >= 1.15.3
#>  9 crplyr     Depends dplyr             <NA>     
#> 10 dat        Depends methods           <NA>     
#> # ... with 6,459 more rows
…
# How many times is each package used during the revdepcheck process?
individual_tibble_revdep_deps %>%
  rowwise() %>%
  mutate(all_pkgs = list(unique(all_deps$Dep))) %>%
  select(-all_deps) %>%
  unnest() %>%
  count(all_pkgs) %>% 
  arrange(-n)
#> # A tibble: 802 x 2
#>    all_pkgs      n
#>    <chr>     <int>
#>  1 methods     262
#>  2 Rcpp        262
#>  3 rlang       262
#>  4 tibble      262
#>  5 utils       262
#>  6 R6          261
#>  7 magrittr    260
#>  8 tools       260
#>  9 grDevices   252
#> 10 digest      251
#> # ... with 792 more rows
```
